[
  {
    "slug": "rodeo-drive",
    "name": "Родео Драйв",
    "prices": {
      "weekday": {
        "1": {
          "10": {
            "price": 250,
            "bonusTime": 0
          },
          "15": {
            "price": 350,
            "bonusTime": 5
          },
          "20": {
            "price": 400,
            "bonusTime": 10
          },
          "30": {
            "price": 650,
            "bonusTime": 15
          },
          "60": {
            "price": 1200,
            "bonusTime": 20
          }
        },
        "2": {
          "10": {
            "price": 350,
            "bonusTime": 0
          },
          "15": {
            "price": 500,
            "bonusTime": 5
          },
          "20": {
            "price": 600,
            "bonusTime": 10
          },
          "30": {
            "price": 950,
            "bonusTime": 15
          },
          "60": {
            "price": 1800,
            "bonusTime": 20
          }
        },
        "3": {
          "10": {
            "price": 500,
            "bonusTime": 0
          },
          "15": {
            "price": 750,
            "bonusTime": 5
          },
          "20": {
            "price": 900,
            "bonusTime": 10
          },
          "30": {
            "price": 1400,
            "bonusTime": 15
          },
          "60": {
            "price": 2700,
            "bonusTime": 20
          }
        },
        "4": {
          "10": {
            "price": 650,
            "bonusTime": 0
          },
          "15": {
            "price": 900,
            "bonusTime": 5
          },
          "20": {
            "price": 1100,
            "bonusTime": 10
          },
          "30": {
            "price": 1700,
            "bonusTime": 15
          },
          "60": {
            "price": 3300,
            "bonusTime": 20
          }
        }
      },
      "weekend": {
        "1": {
          "10": {
            "price": 300,
            "bonusTime": 0
          },
          "15": {
            "price": 400,
            "bonusTime": 5
          },
          "20": {
            "price": 500,
            "bonusTime": 5
          },
          "30": {
            "price": 750,
            "bonusTime": 5
          },
          "60": {
            "price": 1400,
            "bonusTime": 5
          }
        },
        "2": {
          "10": {
            "price": 450,
            "bonusTime": 0
          },
          "15": {
            "price": 600,
            "bonusTime": 5
          },
          "20": {
            "price": 750,
            "bonusTime": 5
          },
          "30": {
            "price": 1100,
            "bonusTime": 5
          },
          "60": {
            "price": 2100,
            "bonusTime": 5
          }
        },
        "3": {
          "10": {
            "price": 650,
            "bonusTime": 0
          },
          "15": {
            "price": 900,
            "bonusTime": 5
          },
          "20": {
            "price": 1100,
            "bonusTime": 5
          },
          "30": {
            "price": 1650,
            "bonusTime": 5
          },
          "60": {
            "price": 3150,
            "bonusTime": 5
          }
        },
        "4": {
          "10": {
            "price": 800,
            "bonusTime": 0
          },
          "15": {
            "price": 1100,
            "bonusTime": 5
          },
          "20": {
            "price": 1300,
            "bonusTime": 5
          },
          "30": {
            "price": 2000,
            "bonusTime": 5
          },
          "60": {
            "price": 3900,
            "bonusTime": 5
          }
        }
      }
    }
  },
  {
    "slug": "shkipersky-mall",
    "name": "Шкиперский Молл",
    "prices": {
      "weekday": {
        "1": {
          "5": {
            "price": 200,
            "bonusTime": 5
          },
          "10": {
            "price": 300,
            "bonusTime": 5
          },
          "15": {
            "price": 400,
            "bonusTime": 10
          },
          "30": {
            "price": 650,
            "bonusTime": 10
          },
          "60": {
            "price": 1200,
            "bonusTime": 15
          }
        },
        "2": {
          "5": {
            "price": 300,
            "bonusTime": 5
          },
          "10": {
            "price": 450,
            "bonusTime": 5
          },
          "15": {
            "price": 600,
            "bonusTime": 10
          },
          "30": {
            "price": 950,
            "bonusTime": 10
          },
          "60": {
            "price": 1800,
            "bonusTime": 15
          }
        }
      },
      "weekend": {
        "1": {
          "5": {
            "price": 250,
            "bonusTime": 0
          },
          "10": {
            "price": 350,
            "bonusTime": 0
          },
          "15": {
            "price": 500,
            "bonusTime": 0
          },
          "30": {
            "price": 800,
            "bonusTime": 0
          },
          "60": {
            "price": 1400,
            "bonusTime": 0
          }
        },
        "2": {
          "5": {
            "price": 350,
            "bonusTime": 0
          },
          "10": {
            "price": 500,
            "bonusTime": 5
          },
          "15": {
            "price": 750,
            "bonusTime": 0
          },
          "30": {
            "price": 1200,
            "bonusTime": 0
          },
          "60": {
            "price": 2100,
            "bonusTime": 0
          }
        }
      }
    }
  },
  {
    "slug": "kontinent-stachek",
    "name": "Континент Стачек",
    "prices": {
      "weekday": {
        "1": {
          "5": {
            "price": 200,
            "bonusTime": 5
          },
          "10": {
            "price": 300,
            "bonusTime": 5
          },
          "15": {
            "price": 400,
            "bonusTime": 10
          },
          "30": {
            "price": 650,
            "bonusTime": 10
          },
          "60": {
            "price": 1200,
            "bonusTime": 15
          }
        },
        "2": {
          "5": {
            "price": 300,
            "bonusTime": 5
          },
          "10": {
            "price": 450,
            "bonusTime": 5
          },
          "15": {
            "price": 600,
            "bonusTime": 10
          },
          "30": {
            "price": 950,
            "bonusTime": 10
          },
          "60": {
            "price": 1800,
            "bonusTime": 15
          }
        }
      },
      "weekend": {
        "1": {
          "5": {
            "price": 250,
            "bonusTime": 0
          },
          "10": {
            "price": 350,
            "bonusTime": 0
          },
          "15": {
            "price": 500,
            "bonusTime": 0
          },
          "30": {
            "price": 800,
            "bonusTime": 0
          },
          "60": {
            "price": 1400,
            "bonusTime": 0
          }
        },
        "2": {
          "5": {
            "price": 350,
            "bonusTime": 0
          },
          "10": {
            "price": 500,
            "bonusTime": 5
          },
          "15": {
            "price": 750,
            "bonusTime": 0
          },
          "30": {
            "price": 1200,
            "bonusTime": 0
          },
          "60": {
            "price": 2100,
            "bonusTime": 0
          }
        }
      }
    }
  },
  {
    "slug": "raduga-kinoteatr",
    "name": "Радуга (кинотеатр)",
    "prices": {
      "weekday": {
        "1": {
          "5": {
            "price": 200,
            "bonusTime": 5
          },
          "10": {
            "price": 300,
            "bonusTime": 5
          },
          "15": {
            "price": 400,
            "bonusTime": 10
          },
          "30": {
            "price": 650,
            "bonusTime": 10
          },
          "60": {
            "price": 1200,
            "bonusTime": 15
          }
        },
        "2": {
          "5": {
            "price": 300,
            "bonusTime": 5
          },
          "10": {
            "price": 450,
            "bonusTime": 5
          },
          "15": {
            "price": 600,
            "bonusTime": 10
          },
          "30": {
            "price": 950,
            "bonusTime": 10
          },
          "60": {
            "price": 1800,
            "bonusTime": 15
          }
        }
      },
      "weekend": {
        "1": {
          "5": {
            "price": 250,
            "bonusTime": 0
          },
          "10": {
            "price": 350,
            "bonusTime": 0
          },
          "15": {
            "price": 500,
            "bonusTime": 0
          },
          "30": {
            "price": 800,
            "bonusTime": 0
          },
          "60": {
            "price": 1400,
            "bonusTime": 0
          }
        },
        "2": {
          "5": {
            "price": 350,
            "bonusTime": 0
          },
          "10": {
            "price": 500,
            "bonusTime": 5
          },
          "15": {
            "price": 750,
            "bonusTime": 0
          },
          "30": {
            "price": 1200,
            "bonusTime": 0
          },
          "60": {
            "price": 2100,
            "bonusTime": 0
          }
        }
      }
    }
  },
  {
    "slug": "kubus",
    "name": "Кубус",
    "prices": {
      "weekday": {
        "1": {
          "5": {
            "price": 200,
            "bonusTime": 5
          },
          "10": {
            "price": 300,
            "bonusTime": 5
          },
          "15": {
            "price": 400,
            "bonusTime": 10
          },
          "30": {
            "price": 650,
            "bonusTime": 10
          },
          "60": {
            "price": 1200,
            "bonusTime": 15
          }
        },
        "2": {
          "5": {
            "price": 300,
            "bonusTime": 5
          },
          "10": {
            "price": 450,
            "bonusTime": 5
          },
          "15": {
            "price": 600,
            "bonusTime": 10
          },
          "30": {
            "price": 950,
            "bonusTime": 10
          },
          "60": {
            "price": 1800,
            "bonusTime": 15
          }
        }
      },
      "weekend": {
        "1": {
          "5": {
            "price": 250,
            "bonusTime": 0
          },
          "10": {
            "price": 350,
            "bonusTime": 0
          },
          "15": {
            "price": 500,
            "bonusTime": 0
          },
          "30": {
            "price": 800,
            "bonusTime": 0
          },
          "60": {
            "price": 1400,
            "bonusTime": 0
          }
        },
        "2": {
          "5": {
            "price": 350,
            "bonusTime": 0
          },
          "10": {
            "price": 500,
            "bonusTime": 5
          },
          "15": {
            "price": 750,
            "bonusTime": 0
          },
          "30": {
            "price": 1200,
            "bonusTime": 0
          },
          "60": {
            "price": 2100,
            "bonusTime": 0
          }
        }
      }
    }
  },
  {
    "slug": "leto",
    "name": "Лето",
    "prices": {
      "weekday": {
        "1": {
          "5": {
            "price": 200,
            "bonusTime": 5
          },
          "10": {
            "price": 300,
            "bonusTime": 5
          },
          "15": {
            "price": 400,
            "bonusTime": 10
          },
          "30": {
            "price": 650,
            "bonusTime": 10
          },
          "60": {
            "price": 1200,
            "bonusTime": 15
          }
        },
        "2": {
          "5": {
            "price": 300,
            "bonusTime": 5
          },
          "10": {
            "price": 450,
            "bonusTime": 5
          },
          "15": {
            "price": 600,
            "bonusTime": 10
          },
          "30": {
            "price": 950,
            "bonusTime": 10
          },
          "60": {
            "price": 1800,
            "bonusTime": 15
          }
        }
      },
      "weekend": {
        "1": {
          "7": {
            "price": 350,
            "bonusTime": 0
          },
          "15": {
            "price": 500,
            "bonusTime": 0
          }
        },
        "2": {
          "7": {
            "price": 500,
            "bonusTime": 0
          },
          "15": {
            "price": 750,
            "bonusTime": 0
          }
        }
      }
    }
  },
  {
    "slug": "zhemchuzhnaya-plaza",
    "name": "Жемчужная Плаза",
    "prices": {
      "weekday": {
        "1": {
          "5": {
            "price": 200,
            "bonusTime": 5
          },
          "10": {
            "price": 300,
            "bonusTime": 5
          },
          "15": {
            "price": 400,
            "bonusTime": 10
          },
          "30": {
            "price": 650,
            "bonusTime": 10
          },
          "60": {
            "price": 1200,
            "bonusTime": 15
          }
        },
        "2": {
          "5": {
            "price": 300,
            "bonusTime": 5
          },
          "10": {
            "price": 450,
            "bonusTime": 5
          },
          "15": {
            "price": 600,
            "bonusTime": 10
          },
          "30": {
            "price": 950,
            "bonusTime": 10
          },
          "60": {
            "price": 1800,
            "bonusTime": 15
          }
        }
      },
      "weekend": {
        "1": {
          "7": {
            "price": 350,
            "bonusTime": 0
          },
          "15": {
            "price": 500,
            "bonusTime": 0
          }
        },
        "2": {
          "7": {
            "price": 500,
            "bonusTime": 0
          },
          "15": {
            "price": 750,
            "bonusTime": 0
          }
        }
      }
    }
  },
  {
    "slug": "okhta-mall",
    "name": "Охта Молл",
    "prices": {
      "weekday": {
        "1": {
          "5": {
            "price": 200,
            "bonusTime": 5
          },
          "10": {
            "price": 300,
            "bonusTime": 5
          },
          "15": {
            "price": 400,
            "bonusTime": 10
          },
          "30": {
            "price": 650,
            "bonusTime": 10
          },
          "60": {
            "price": 1200,
            "bonusTime": 15
          }
        },
        "2": {
          "5": {
            "price": 300,
            "bonusTime": 5
          },
          "10": {
            "price": 450,
            "bonusTime": 5
          },
          "15": {
            "price": 600,
            "bonusTime": 10
          },
          "30": {
            "price": 950,
            "bonusTime": 10
          },
          "60": {
            "price": 1800,
            "bonusTime": 15
          }
        }
      },
      "weekend": {
        "1": {
          "7": {
            "price": 350,
            "bonusTime": 0
          },
          "15": {
            "price": 500,
            "bonusTime": 0
          }
        },
        "2": {
          "7": {
            "price": 500,
            "bonusTime": 0
          },
          "15": {
            "price": 750,
            "bonusTime": 0
          }
        }
      }
    }
  },
  {
    "slug": "raduga",
    "name": "Радуга",
    "prices": {
      "weekday": {
        "1": {
          "5": {
            "price": 200,
            "bonusTime": 5
          },
          "10": {
            "price": 300,
            "bonusTime": 5
          },
          "15": {
            "price": 400,
            "bonusTime": 10
          },
          "30": {
            "price": 650,
            "bonusTime": 10
          },
          "60": {
            "price": 1200,
            "bonusTime": 15
          }
        },
        "2": {
          "5": {
            "price": 300,
            "bonusTime": 5
          },
          "10": {
            "price": 450,
            "bonusTime": 5
          },
          "15": {
            "price": 600,
            "bonusTime": 10
          },
          "30": {
            "price": 950,
            "bonusTime": 10
          },
          "60": {
            "price": 1800,
            "bonusTime": 15
          }
        }
      },
      "weekend": {
        "1": {
          "7": {
            "price": 350,
            "bonusTime": 0
          },
          "15": {
            "price": 500,
            "bonusTime": 0
          }
        },
        "2": {
          "7": {
            "price": 500,
            "bonusTime": 0
          },
          "15": {
            "price": 750,
            "bonusTime": 0
          }
        }
      }
    }
  },
  {
    "slug": "city-mall",
    "name": "Сити Молл",
    "prices": {
      "weekday": {
        "1": {
          "5": {
            "price": 200,
            "bonusTime": 5
          },
          "10": {
            "price": 300,
            "bonusTime": 5
          },
          "15": {
            "price": 400,
            "bonusTime": 10
          },
          "30": {
            "price": 650,
            "bonusTime": 10
          },
          "60": {
            "price": 1200,
            "bonusTime": 15
          }
        },
        "2": {
          "5": {
            "price": 300,
            "bonusTime": 5
          },
          "10": {
            "price": 450,
            "bonusTime": 5
          },
          "15": {
            "price": 600,
            "bonusTime": 10
          },
          "30": {
            "price": 950,
            "bonusTime": 10
          },
          "60": {
            "price": 1800,
            "bonusTime": 15
          }
        }
      },
      "weekend": {
        "1": {
          "7": {
            "price": 350,
            "bonusTime": 0
          },
          "15": {
            "price": 500,
            "bonusTime": 0
          }
        },
        "2": {
          "7": {
            "price": 500,
            "bonusTime": 0
          },
          "15": {
            "price": 750,
            "bonusTime": 0
          }
        }
      }
    }
  },
  {
    "slug": "mega-dybenko",
    "name": "Мега Дыбенко",
    "prices": {
      "weekday": {
        "1": {
          "5": {
            "price": 200,
            "bonusTime": 5
          },
          "10": {
            "price": 300,
            "bonusTime": 5
          },
          "15": {
            "price": 400,
            "bonusTime": 10
          },
          "30": {
            "price": 650,
            "bonusTime": 10
          },
          "60": {
            "price": 1200,
            "bonusTime": 15
          }
        },
        "2": {
          "5": {
            "price": 300,
            "bonusTime": 5
          },
          "10": {
            "price": 450,
            "bonusTime": 5
          },
          "15": {
            "price": 600,
            "bonusTime": 10
          },
          "30": {
            "price": 950,
            "bonusTime": 10
          },
          "60": {
            "price": 1800,
            "bonusTime": 15
          }
        }
      },
      "weekend": {
        "1": {
          "7": {
            "price": 350,
            "bonusTime": 0
          },
          "15": {
            "price": 500,
            "bonusTime": 0
          }
        },
        "2": {
          "7": {
            "price": 500,
            "bonusTime": 0
          },
          "15": {
            "price": 750,
            "bonusTime": 0
          }
        }
      }
    }
  }
]
